# atomic number, element name, solar photospheric abundance, mean atomic weight
# Solar abundances from Asplund et al. 2009
# Mean atomic weights from NIST (https://www.nist.gov/pml/atomic-weights-and-isotopic-compositions-relative-atomic-masses)
1  H  12.00 1.007975  
2  He 10.93 4.002602
3  Li  1.05 6.9675            
4  Be  1.38 9.0121831
5  B   2.70 10.8135
6  C   8.43 12.0106
7  N   7.83 14.006855
8  O   8.69 15.9994
9  F   4.56 18.998403163 
10 Ne  7.93 20.1797 
11 Na  6.24 22.98976928
12 Mg  7.60 24.3055 
13 Al  6.45 26.9815385 
14 Si  7.51 28.085
15 P   5.41 30.973761998
16 S   7.12 32.0675
17 Cl  5.50 35.4515
18 Ar  6.40 39.948
19 K   5.03 39.0983
20 Ca  6.34 40.078
21 Sc  3.15 44.955908
22 Ti  4.95 47.867
23 V   3.93 50.9415
24 Cr  5.64 51.9961
25 Mn  5.43 54.938044
26 Fe  7.50 55.845
27 Co  4.99 58.933194
28 Ni  6.22 58.6934
29 Cu  4.19 63.546
30 Zn  4.56 65.38
31 Ga  3.04 69.723
32 Ge  3.65 72.630
33 As  2.30 74.921595
34 Se  3.34 78.971
35 Br  2.54 79.904 
36 Kr  3.25 83.798
37 Rb  2.52 85.4678
38 Sr  2.87 87.62
39 Y   2.21 88.90584
40 Zr  2.58 91.224
41 Nb  1.46 92.90637
42 Mo  1.88 95.95
44 Ru  1.75 101.07
45 Rh  0.91 102.90550
46 Pd  1.57 106.42
47 Ag  0.94 107.8682
48 Cd  1.71 112.414
49 In  0.80 114.818
50 Sn  2.04 118.710
51 Sb  1.01 121.760
52 Te  2.18 127.60
53 I   1.55 126.90447
54 Xe  2.24 131.293
55 Cs  1.08 132.90545196
56 Ba  2.18 137.327
57 La  1.10 138.90547
58 Ce  1.58 140.116
59 Pr  0.72 140.90766
60 Nd  1.42 144.242
62 Sm  0.96 150.36
63 Eu  0.52 151.964
64 Gd  1.07 157.25
65 Tb  0.30 158.92535
66 Dy  1.10 162.500
67 Ho  0.48 164.93033
68 Er  0.92 167.259
69 Tm  0.10 168.93422
70 Yb  0.84 173.054
71 Lu  0.10 174.9668
72 Hf  0.85 178.49
73 Ta -0.12 180.94788
74 W   0.85 183.84
75 Re  0.26 186.207
76 Os  1.40 190.23
77 Ir  1.38 192.217
78 Pt  1.62 195.084
79 Au  0.92 196.966569
80 Hg  1.17 200.592
81 Tl  0.90 204.3835
82 Pb  1.75 207.2
83 Bi  0.65 208.98040
90 Th  0.02 232.0377
92 U  -0.54 238.02891
