random dZ
0.000 -9.990
0.001 -4.910
0.002 -4.420
0.003 -4.130
0.004 -3.930
0.005 -3.770
0.006 -3.640
0.007 -3.530
0.008 -3.440
0.009 -3.360
0.010 -3.280
0.011 -3.210
0.012 -3.150
0.013 -3.100
0.014 -3.040
0.015 -3.000
0.016 -2.950
0.017 -2.910
0.018 -2.870
0.019 -2.830
0.020 -2.790
0.021 -2.760
0.022 -2.720
0.023 -2.690
0.024 -2.660
0.025 -2.630
0.026 -2.610
0.027 -2.580
0.028 -2.550
0.029 -2.530
0.030 -2.510
0.031 -2.480
0.032 -2.460
0.033 -2.440
0.034 -2.420
0.035 -2.400
0.036 -2.380
0.037 -2.360
0.038 -2.340
0.039 -2.320
0.040 -2.300
0.041 -2.280
0.042 -2.270
0.043 -2.250
0.044 -2.230
0.045 -2.220
0.046 -2.200
0.047 -2.190
0.048 -2.170
0.049 -2.160
0.050 -2.140
0.051 -2.130
0.052 -2.120
0.053 -2.100
0.054 -2.090
0.055 -2.080
0.056 -2.060
0.057 -2.050
0.058 -2.040
0.059 -2.030
0.060 -2.020
0.061 -2.000
0.062 -1.990
0.063 -1.980
0.064 -1.970
0.065 -1.960
0.066 -1.950
0.067 -1.940
0.068 -1.930
0.069 -1.920
0.070 -1.910
0.071 -1.900
0.072 -1.890
0.073 -1.880
0.074 -1.870
0.075 -1.860
0.076 -1.850
0.077 -1.840
0.078 -1.830
0.079 -1.820
0.080 -1.810
0.081 -1.800
0.082 -1.790
0.083 -1.790
0.084 -1.780
0.085 -1.770
0.086 -1.760
0.087 -1.750
0.088 -1.740
0.089 -1.740
0.090 -1.730
0.091 -1.720
0.092 -1.710
0.093 -1.710
0.094 -1.700
0.095 -1.690
0.096 -1.680
0.097 -1.680
0.098 -1.670
0.099 -1.660
0.100 -1.650
0.101 -1.650
0.102 -1.640
0.103 -1.630
0.104 -1.630
0.105 -1.620
0.106 -1.610
0.107 -1.610
0.108 -1.600
0.109 -1.590
0.110 -1.590
0.111 -1.580
0.112 -1.570
0.113 -1.570
0.114 -1.560
0.115 -1.560
0.116 -1.550
0.117 -1.540
0.118 -1.540
0.119 -1.530
0.120 -1.530
0.121 -1.520
0.122 -1.510
0.123 -1.510
0.124 -1.500
0.125 -1.500
0.126 -1.490
0.127 -1.480
0.128 -1.480
0.129 -1.470
0.130 -1.470
0.131 -1.460
0.132 -1.460
0.133 -1.450
0.134 -1.450
0.135 -1.440
0.136 -1.440
0.137 -1.430
0.138 -1.430
0.139 -1.420
0.140 -1.420
0.141 -1.410
0.142 -1.410
0.143 -1.400
0.144 -1.400
0.145 -1.390
0.146 -1.390
0.147 -1.380
0.148 -1.380
0.149 -1.370
0.150 -1.370
0.151 -1.360
0.152 -1.360
0.153 -1.350
0.154 -1.350
0.155 -1.340
0.156 -1.340
0.157 -1.340
0.158 -1.330
0.159 -1.330
0.160 -1.320
0.161 -1.320
0.162 -1.310
0.163 -1.310
0.164 -1.300
0.165 -1.300
0.166 -1.300
0.167 -1.290
0.168 -1.290
0.169 -1.280
0.170 -1.280
0.171 -1.270
0.172 -1.270
0.173 -1.270
0.174 -1.260
0.175 -1.260
0.176 -1.250
0.177 -1.250
0.178 -1.250
0.179 -1.240
0.180 -1.240
0.181 -1.230
0.182 -1.230
0.183 -1.230
0.184 -1.220
0.185 -1.220
0.186 -1.220
0.187 -1.210
0.188 -1.210
0.189 -1.200
0.190 -1.200
0.191 -1.200
0.192 -1.190
0.193 -1.190
0.194 -1.190
0.195 -1.180
0.196 -1.180
0.197 -1.170
0.198 -1.170
0.199 -1.170
0.200 -1.160
0.201 -1.160
0.202 -1.160
0.203 -1.150
0.204 -1.150
0.205 -1.150
0.206 -1.140
0.207 -1.140
0.208 -1.140
0.209 -1.130
0.210 -1.130
0.211 -1.130
0.212 -1.120
0.213 -1.120
0.214 -1.120
0.215 -1.110
0.216 -1.110
0.217 -1.110
0.218 -1.100
0.219 -1.100
0.220 -1.100
0.221 -1.090
0.222 -1.090
0.223 -1.090
0.224 -1.080
0.225 -1.080
0.226 -1.080
0.227 -1.070
0.228 -1.070
0.229 -1.070
0.230 -1.070
0.231 -1.060
0.232 -1.060
0.233 -1.060
0.234 -1.050
0.235 -1.050
0.236 -1.050
0.237 -1.040
0.238 -1.040
0.239 -1.040
0.240 -1.030
0.241 -1.030
0.242 -1.030
0.243 -1.030
0.244 -1.020
0.245 -1.020
0.246 -1.020
0.247 -1.010
0.248 -1.010
0.249 -1.010
0.250 -1.010
0.251 -1.000
0.252 -1.000
0.253 -1.000
0.254 -0.990
0.255 -0.990
0.256 -0.990
0.257 -0.990
0.258 -0.980
0.259 -0.980
0.260 -0.980
0.261 -0.980
0.262 -0.970
0.263 -0.970
0.264 -0.970
0.265 -0.960
0.266 -0.960
0.267 -0.960
0.268 -0.960
0.269 -0.950
0.270 -0.950
0.271 -0.950
0.272 -0.950
0.273 -0.940
0.274 -0.940
0.275 -0.940
0.276 -0.940
0.277 -0.930
0.278 -0.930
0.279 -0.930
0.280 -0.930
0.281 -0.920
0.282 -0.920
0.283 -0.920
0.284 -0.920
0.285 -0.910
0.286 -0.910
0.287 -0.910
0.288 -0.910
0.289 -0.900
0.290 -0.900
0.291 -0.900
0.292 -0.900
0.293 -0.890
0.294 -0.890
0.295 -0.890
0.296 -0.890
0.297 -0.880
0.298 -0.880
0.299 -0.880
0.300 -0.880
0.301 -0.870
0.302 -0.870
0.303 -0.870
0.304 -0.870
0.305 -0.870
0.306 -0.860
0.307 -0.860
0.308 -0.860
0.309 -0.860
0.310 -0.850
0.311 -0.850
0.312 -0.850
0.313 -0.850
0.314 -0.840
0.315 -0.840
0.316 -0.840
0.317 -0.840
0.318 -0.840
0.319 -0.830
0.320 -0.830
0.321 -0.830
0.322 -0.830
0.323 -0.820
0.324 -0.820
0.325 -0.820
0.326 -0.820
0.327 -0.820
0.328 -0.810
0.329 -0.810
0.330 -0.810
0.331 -0.810
0.332 -0.810
0.333 -0.800
0.334 -0.800
0.335 -0.800
0.336 -0.800
0.337 -0.790
0.338 -0.790
0.339 -0.790
0.340 -0.790
0.341 -0.790
0.342 -0.780
0.343 -0.780
0.344 -0.780
0.345 -0.780
0.346 -0.780
0.347 -0.770
0.348 -0.770
0.349 -0.770
0.350 -0.770
0.351 -0.770
0.352 -0.760
0.353 -0.760
0.354 -0.760
0.355 -0.760
0.356 -0.760
0.357 -0.750
0.358 -0.750
0.359 -0.750
0.360 -0.750
0.361 -0.750
0.362 -0.740
0.363 -0.740
0.364 -0.740
0.365 -0.740
0.366 -0.740
0.367 -0.730
0.368 -0.730
0.369 -0.730
0.370 -0.730
0.371 -0.730
0.372 -0.720
0.373 -0.720
0.374 -0.720
0.375 -0.720
0.376 -0.720
0.377 -0.720
0.378 -0.710
0.379 -0.710
0.380 -0.710
0.381 -0.710
0.382 -0.710
0.383 -0.700
0.384 -0.700
0.385 -0.700
0.386 -0.700
0.387 -0.700
0.388 -0.690
0.389 -0.690
0.390 -0.690
0.391 -0.690
0.392 -0.690
0.393 -0.690
0.394 -0.680
0.395 -0.680
0.396 -0.680
0.397 -0.680
0.398 -0.680
0.399 -0.680
0.400 -0.670
0.401 -0.670
0.402 -0.670
0.403 -0.670
0.404 -0.670
0.405 -0.660
0.406 -0.660
0.407 -0.660
0.408 -0.660
0.409 -0.660
0.410 -0.660
0.411 -0.650
0.412 -0.650
0.413 -0.650
0.414 -0.650
0.415 -0.650
0.416 -0.650
0.417 -0.640
0.418 -0.640
0.419 -0.640
0.420 -0.640
0.421 -0.640
0.422 -0.640
0.423 -0.630
0.424 -0.630
0.425 -0.630
0.426 -0.630
0.427 -0.630
0.428 -0.630
0.429 -0.620
0.430 -0.620
0.431 -0.620
0.432 -0.620
0.433 -0.620
0.434 -0.620
0.435 -0.610
0.436 -0.610
0.437 -0.610
0.438 -0.610
0.439 -0.610
0.440 -0.610
0.441 -0.600
0.442 -0.600
0.443 -0.600
0.444 -0.600
0.445 -0.600
0.446 -0.600
0.447 -0.590
0.448 -0.590
0.449 -0.590
0.450 -0.590
0.451 -0.590
0.452 -0.590
0.453 -0.580
0.454 -0.580
0.455 -0.580
0.456 -0.580
0.457 -0.580
0.458 -0.580
0.459 -0.580
0.460 -0.570
0.461 -0.570
0.462 -0.570
0.463 -0.570
0.464 -0.570
0.465 -0.570
0.466 -0.560
0.467 -0.560
0.468 -0.560
0.469 -0.560
0.470 -0.560
0.471 -0.560
0.472 -0.560
0.473 -0.550
0.474 -0.550
0.475 -0.550
0.476 -0.550
0.477 -0.550
0.478 -0.550
0.479 -0.540
0.480 -0.540
0.481 -0.540
0.482 -0.540
0.483 -0.540
0.484 -0.540
0.485 -0.540
0.486 -0.530
0.487 -0.530
0.488 -0.530
0.489 -0.530
0.490 -0.530
0.491 -0.530
0.492 -0.530
0.493 -0.520
0.494 -0.520
0.495 -0.520
0.496 -0.520
0.497 -0.520
0.498 -0.520
0.499 -0.510
0.500 -0.510
0.501 -0.510
0.502 -0.510
0.503 -0.510
0.504 -0.510
0.505 -0.510
0.506 -0.500
0.507 -0.500
0.508 -0.500
0.509 -0.500
0.510 -0.500
0.511 -0.500
0.512 -0.500
0.513 -0.490
0.514 -0.490
0.515 -0.490
0.516 -0.490
0.517 -0.490
0.518 -0.490
0.519 -0.490
0.520 -0.480
0.521 -0.480
0.522 -0.480
0.523 -0.480
0.524 -0.480
0.525 -0.480
0.526 -0.480
0.527 -0.470
0.528 -0.470
0.529 -0.470
0.530 -0.470
0.531 -0.470
0.532 -0.470
0.533 -0.470
0.534 -0.470
0.535 -0.460
0.536 -0.460
0.537 -0.460
0.538 -0.460
0.539 -0.460
0.540 -0.460
0.541 -0.460
0.542 -0.450
0.543 -0.450
0.544 -0.450
0.545 -0.450
0.546 -0.450
0.547 -0.450
0.548 -0.450
0.549 -0.440
0.550 -0.440
0.551 -0.440
0.552 -0.440
0.553 -0.440
0.554 -0.440
0.555 -0.440
0.556 -0.440
0.557 -0.430
0.558 -0.430
0.559 -0.430
0.560 -0.430
0.561 -0.430
0.562 -0.430
0.563 -0.430
0.564 -0.420
0.565 -0.420
0.566 -0.420
0.567 -0.420
0.568 -0.420
0.569 -0.420
0.570 -0.420
0.571 -0.420
0.572 -0.410
0.573 -0.410
0.574 -0.410
0.575 -0.410
0.576 -0.410
0.577 -0.410
0.578 -0.410
0.579 -0.400
0.580 -0.400
0.581 -0.400
0.582 -0.400
0.583 -0.400
0.584 -0.400
0.585 -0.400
0.586 -0.400
0.587 -0.390
0.588 -0.390
0.589 -0.390
0.590 -0.390
0.591 -0.390
0.592 -0.390
0.593 -0.390
0.594 -0.390
0.595 -0.380
0.596 -0.380
0.597 -0.380
0.598 -0.380
0.599 -0.380
0.600 -0.380
0.601 -0.380
0.602 -0.370
0.603 -0.370
0.604 -0.370
0.605 -0.370
0.606 -0.370
0.607 -0.370
0.608 -0.370
0.609 -0.370
0.610 -0.360
0.611 -0.360
0.612 -0.360
0.613 -0.360
0.614 -0.360
0.615 -0.360
0.616 -0.360
0.617 -0.360
0.618 -0.350
0.619 -0.350
0.620 -0.350
0.621 -0.350
0.622 -0.350
0.623 -0.350
0.624 -0.350
0.625 -0.350
0.626 -0.340
0.627 -0.340
0.628 -0.340
0.629 -0.340
0.630 -0.340
0.631 -0.340
0.632 -0.340
0.633 -0.340
0.634 -0.330
0.635 -0.330
0.636 -0.330
0.637 -0.330
0.638 -0.330
0.639 -0.330
0.640 -0.330
0.641 -0.330
0.642 -0.320
0.643 -0.320
0.644 -0.320
0.645 -0.320
0.646 -0.320
0.647 -0.320
0.648 -0.320
0.649 -0.320
0.650 -0.310
0.651 -0.310
0.652 -0.310
0.653 -0.310
0.654 -0.310
0.655 -0.310
0.656 -0.310
0.657 -0.310
0.658 -0.300
0.659 -0.300
0.660 -0.300
0.661 -0.300
0.662 -0.300
0.663 -0.300
0.664 -0.300
0.665 -0.300
0.666 -0.290
0.667 -0.290
0.668 -0.290
0.669 -0.290
0.670 -0.290
0.671 -0.290
0.672 -0.290
0.673 -0.290
0.674 -0.280
0.675 -0.280
0.676 -0.280
0.677 -0.280
0.678 -0.280
0.679 -0.280
0.680 -0.280
0.681 -0.280
0.682 -0.270
0.683 -0.270
0.684 -0.270
0.685 -0.270
0.686 -0.270
0.687 -0.270
0.688 -0.270
0.689 -0.270
0.690 -0.260
0.691 -0.260
0.692 -0.260
0.693 -0.260
0.694 -0.260
0.695 -0.260
0.696 -0.260
0.697 -0.260
0.698 -0.250
0.699 -0.250
0.700 -0.250
0.701 -0.250
0.702 -0.250
0.703 -0.250
0.704 -0.250
0.705 -0.250
0.706 -0.240
0.707 -0.240
0.708 -0.240
0.709 -0.240
0.710 -0.240
0.711 -0.240
0.712 -0.240
0.713 -0.240
0.714 -0.230
0.715 -0.230
0.716 -0.230
0.717 -0.230
0.718 -0.230
0.719 -0.230
0.720 -0.230
0.721 -0.230
0.722 -0.220
0.723 -0.220
0.724 -0.220
0.725 -0.220
0.726 -0.220
0.727 -0.220
0.728 -0.220
0.729 -0.220
0.730 -0.210
0.731 -0.210
0.732 -0.210
0.733 -0.210
0.734 -0.210
0.735 -0.210
0.736 -0.210
0.737 -0.210
0.738 -0.200
0.739 -0.200
0.740 -0.200
0.741 -0.200
0.742 -0.200
0.743 -0.200
0.744 -0.200
0.745 -0.200
0.746 -0.190
0.747 -0.190
0.748 -0.190
0.749 -0.190
0.750 -0.190
0.751 -0.190
0.752 -0.190
0.753 -0.190
0.754 -0.180
0.755 -0.180
0.756 -0.180
0.757 -0.180
0.758 -0.180
0.759 -0.180
0.760 -0.180
0.761 -0.170
0.762 -0.170
0.763 -0.170
0.764 -0.170
0.765 -0.170
0.766 -0.170
0.767 -0.170
0.768 -0.170
0.769 -0.160
0.770 -0.160
0.771 -0.160
0.772 -0.160
0.773 -0.160
0.774 -0.160
0.775 -0.160
0.776 -0.160
0.777 -0.150
0.778 -0.150
0.779 -0.150
0.780 -0.150
0.781 -0.150
0.782 -0.150
0.783 -0.150
0.784 -0.140
0.785 -0.140
0.786 -0.140
0.787 -0.140
0.788 -0.140
0.789 -0.140
0.790 -0.140
0.791 -0.140
0.792 -0.130
0.793 -0.130
0.794 -0.130
0.795 -0.130
0.796 -0.130
0.797 -0.130
0.798 -0.130
0.799 -0.120
0.800 -0.120
0.801 -0.120
0.802 -0.120
0.803 -0.120
0.804 -0.120
0.805 -0.120
0.806 -0.110
0.807 -0.110
0.808 -0.110
0.809 -0.110
0.810 -0.110
0.811 -0.110
0.812 -0.110
0.813 -0.110
0.814 -0.100
0.815 -0.100
0.816 -0.100
0.817 -0.100
0.818 -0.100
0.819 -0.100
0.820 -0.100
0.821 -0.090
0.822 -0.090
0.823 -0.090
0.824 -0.090
0.825 -0.090
0.826 -0.090
0.827 -0.090
0.828 -0.080
0.829 -0.080
0.830 -0.080
0.831 -0.080
0.832 -0.080
0.833 -0.080
0.834 -0.070
0.835 -0.070
0.836 -0.070
0.837 -0.070
0.838 -0.070
0.839 -0.070
0.840 -0.070
0.841 -0.060
0.842 -0.060
0.843 -0.060
0.844 -0.060
0.845 -0.060
0.846 -0.060
0.847 -0.060
0.848 -0.050
0.849 -0.050
0.850 -0.050
0.851 -0.050
0.852 -0.050
0.853 -0.050
0.854 -0.040
0.855 -0.040
0.856 -0.040
0.857 -0.040
0.858 -0.040
0.859 -0.040
0.860 -0.040
0.861 -0.030
0.862 -0.030
0.863 -0.030
0.864 -0.030
0.865 -0.030
0.866 -0.030
0.867 -0.020
0.868 -0.020
0.869 -0.020
0.870 -0.020
0.871 -0.020
0.872 -0.020
0.873 -0.010
0.874 -0.010
0.875 -0.010
0.876 -0.010
0.877 -0.010
0.878 -0.010
0.879 -0.000
0.880 -0.000
0.881 -0.000
0.882 -0.000
0.883 -0.000
0.884 0.010
0.885 0.010
0.886 0.010
0.887 0.010
0.888 0.010
0.889 0.010
0.890 0.020
0.891 0.020
0.892 0.020
0.893 0.020
0.894 0.020
0.895 0.030
0.896 0.030
0.897 0.030
0.898 0.030
0.899 0.030
0.900 0.030
0.901 0.040
0.902 0.040
0.903 0.040
0.904 0.040
0.905 0.040
0.906 0.050
0.907 0.050
0.908 0.050
0.909 0.050
0.910 0.050
0.911 0.060
0.912 0.060
0.913 0.060
0.914 0.060
0.915 0.070
0.916 0.070
0.917 0.070
0.918 0.070
0.919 0.070
0.920 0.080
0.921 0.080
0.922 0.080
0.923 0.080
0.924 0.090
0.925 0.090
0.926 0.090
0.927 0.090
0.928 0.090
0.929 0.100
0.930 0.100
0.931 0.100
0.932 0.100
0.933 0.110
0.934 0.110
0.935 0.110
0.936 0.110
0.937 0.120
0.938 0.120
0.939 0.120
0.940 0.120
0.941 0.130
0.942 0.130
0.943 0.130
0.944 0.140
0.945 0.140
0.946 0.140
0.947 0.140
0.948 0.150
0.949 0.150
0.950 0.150
0.951 0.160
0.952 0.160
0.953 0.160
0.954 0.170
0.955 0.170
0.956 0.170
0.957 0.180
0.958 0.180
0.959 0.180
0.960 0.190
0.961 0.190
0.962 0.190
0.963 0.200
0.964 0.200
0.965 0.210
0.966 0.210
0.967 0.210
0.968 0.220
0.969 0.220
0.970 0.230
0.971 0.230
0.972 0.240
0.973 0.240
0.974 0.250
0.975 0.250
0.976 0.260
0.977 0.260
0.978 0.270
0.979 0.270
0.980 0.280
0.981 0.280
0.982 0.290
0.983 0.300
0.984 0.310
0.985 0.310
0.986 0.320
0.987 0.330
0.988 0.340
0.989 0.350
0.990 0.360
0.991 0.370
0.992 0.380
0.993 0.400
0.994 0.410
0.995 0.430
0.996 0.450
0.997 0.480
0.998 0.520
0.999 0.570
