random dZ
0.000 -9.990
0.001 -9.030
0.002 -8.130
0.003 -7.610
0.004 -7.230
0.005 -6.950
0.006 -6.710
0.007 -6.510
0.008 -6.340
0.009 -6.190
0.010 -6.050
0.011 -5.930
0.012 -5.810
0.013 -5.710
0.014 -5.610
0.015 -5.530
0.016 -5.440
0.017 -5.360
0.018 -5.290
0.019 -5.220
0.020 -5.150
0.021 -5.090
0.022 -5.030
0.023 -4.970
0.024 -4.920
0.025 -4.870
0.026 -4.810
0.027 -4.770
0.028 -4.720
0.029 -4.670
0.030 -4.630
0.031 -4.590
0.032 -4.550
0.033 -4.510
0.034 -4.470
0.035 -4.430
0.036 -4.390
0.037 -4.360
0.038 -4.320
0.039 -4.290
0.040 -4.260
0.041 -4.230
0.042 -4.190
0.043 -4.160
0.044 -4.130
0.045 -4.110
0.046 -4.080
0.047 -4.050
0.048 -4.020
0.049 -4.000
0.050 -3.970
0.051 -3.940
0.052 -3.920
0.053 -3.890
0.054 -3.870
0.055 -3.850
0.056 -3.820
0.057 -3.800
0.058 -3.780
0.059 -3.750
0.060 -3.730
0.061 -3.710
0.062 -3.690
0.063 -3.670
0.064 -3.650
0.065 -3.630
0.066 -3.610
0.067 -3.590
0.068 -3.570
0.069 -3.550
0.070 -3.530
0.071 -3.520
0.072 -3.500
0.073 -3.480
0.074 -3.460
0.075 -3.440
0.076 -3.430
0.077 -3.410
0.078 -3.390
0.079 -3.380
0.080 -3.360
0.081 -3.350
0.082 -3.330
0.083 -3.310
0.084 -3.300
0.085 -3.280
0.086 -3.270
0.087 -3.250
0.088 -3.240
0.089 -3.220
0.090 -3.210
0.091 -3.190
0.092 -3.180
0.093 -3.170
0.094 -3.150
0.095 -3.140
0.096 -3.130
0.097 -3.110
0.098 -3.100
0.099 -3.090
0.100 -3.070
0.101 -3.060
0.102 -3.050
0.103 -3.030
0.104 -3.020
0.105 -3.010
0.106 -3.000
0.107 -2.990
0.108 -2.970
0.109 -2.960
0.110 -2.950
0.111 -2.940
0.112 -2.930
0.113 -2.910
0.114 -2.900
0.115 -2.890
0.116 -2.880
0.117 -2.870
0.118 -2.860
0.119 -2.850
0.120 -2.840
0.121 -2.830
0.122 -2.820
0.123 -2.810
0.124 -2.790
0.125 -2.780
0.126 -2.770
0.127 -2.760
0.128 -2.750
0.129 -2.740
0.130 -2.730
0.131 -2.720
0.132 -2.710
0.133 -2.700
0.134 -2.690
0.135 -2.680
0.136 -2.680
0.137 -2.670
0.138 -2.660
0.139 -2.650
0.140 -2.640
0.141 -2.630
0.142 -2.620
0.143 -2.610
0.144 -2.600
0.145 -2.590
0.146 -2.580
0.147 -2.570
0.148 -2.570
0.149 -2.560
0.150 -2.550
0.151 -2.540
0.152 -2.530
0.153 -2.520
0.154 -2.510
0.155 -2.510
0.156 -2.500
0.157 -2.490
0.158 -2.480
0.159 -2.470
0.160 -2.470
0.161 -2.460
0.162 -2.450
0.163 -2.440
0.164 -2.430
0.165 -2.430
0.166 -2.420
0.167 -2.410
0.168 -2.400
0.169 -2.390
0.170 -2.390
0.171 -2.380
0.172 -2.370
0.173 -2.360
0.174 -2.360
0.175 -2.350
0.176 -2.340
0.177 -2.330
0.178 -2.330
0.179 -2.320
0.180 -2.310
0.181 -2.310
0.182 -2.300
0.183 -2.290
0.184 -2.280
0.185 -2.280
0.186 -2.270
0.187 -2.260
0.188 -2.260
0.189 -2.250
0.190 -2.240
0.191 -2.240
0.192 -2.230
0.193 -2.220
0.194 -2.220
0.195 -2.210
0.196 -2.200
0.197 -2.200
0.198 -2.190
0.199 -2.180
0.200 -2.180
0.201 -2.170
0.202 -2.160
0.203 -2.160
0.204 -2.150
0.205 -2.140
0.206 -2.140
0.207 -2.130
0.208 -2.130
0.209 -2.120
0.210 -2.110
0.211 -2.110
0.212 -2.100
0.213 -2.100
0.214 -2.090
0.215 -2.080
0.216 -2.080
0.217 -2.070
0.218 -2.070
0.219 -2.060
0.220 -2.050
0.221 -2.050
0.222 -2.040
0.223 -2.040
0.224 -2.030
0.225 -2.020
0.226 -2.020
0.227 -2.010
0.228 -2.010
0.229 -2.000
0.230 -2.000
0.231 -1.990
0.232 -1.980
0.233 -1.980
0.234 -1.970
0.235 -1.970
0.236 -1.960
0.237 -1.960
0.238 -1.950
0.239 -1.950
0.240 -1.940
0.241 -1.940
0.242 -1.930
0.243 -1.920
0.244 -1.920
0.245 -1.910
0.246 -1.910
0.247 -1.900
0.248 -1.900
0.249 -1.890
0.250 -1.890
0.251 -1.880
0.252 -1.880
0.253 -1.870
0.254 -1.870
0.255 -1.860
0.256 -1.860
0.257 -1.850
0.258 -1.850
0.259 -1.840
0.260 -1.840
0.261 -1.830
0.262 -1.830
0.263 -1.820
0.264 -1.820
0.265 -1.810
0.266 -1.810
0.267 -1.800
0.268 -1.800
0.269 -1.790
0.270 -1.790
0.271 -1.780
0.272 -1.780
0.273 -1.770
0.274 -1.770
0.275 -1.760
0.276 -1.760
0.277 -1.760
0.278 -1.750
0.279 -1.750
0.280 -1.740
0.281 -1.740
0.282 -1.730
0.283 -1.730
0.284 -1.720
0.285 -1.720
0.286 -1.710
0.287 -1.710
0.288 -1.710
0.289 -1.700
0.290 -1.700
0.291 -1.690
0.292 -1.690
0.293 -1.680
0.294 -1.680
0.295 -1.670
0.296 -1.670
0.297 -1.670
0.298 -1.660
0.299 -1.660
0.300 -1.650
0.301 -1.650
0.302 -1.640
0.303 -1.640
0.304 -1.640
0.305 -1.630
0.306 -1.630
0.307 -1.620
0.308 -1.620
0.309 -1.610
0.310 -1.610
0.311 -1.610
0.312 -1.600
0.313 -1.600
0.314 -1.590
0.315 -1.590
0.316 -1.590
0.317 -1.580
0.318 -1.580
0.319 -1.570
0.320 -1.570
0.321 -1.560
0.322 -1.560
0.323 -1.560
0.324 -1.550
0.325 -1.550
0.326 -1.540
0.327 -1.540
0.328 -1.540
0.329 -1.530
0.330 -1.530
0.331 -1.530
0.332 -1.520
0.333 -1.520
0.334 -1.510
0.335 -1.510
0.336 -1.510
0.337 -1.500
0.338 -1.500
0.339 -1.490
0.340 -1.490
0.341 -1.490
0.342 -1.480
0.343 -1.480
0.344 -1.480
0.345 -1.470
0.346 -1.470
0.347 -1.460
0.348 -1.460
0.349 -1.460
0.350 -1.450
0.351 -1.450
0.352 -1.450
0.353 -1.440
0.354 -1.440
0.355 -1.430
0.356 -1.430
0.357 -1.430
0.358 -1.420
0.359 -1.420
0.360 -1.420
0.361 -1.410
0.362 -1.410
0.363 -1.410
0.364 -1.400
0.365 -1.400
0.366 -1.400
0.367 -1.390
0.368 -1.390
0.369 -1.380
0.370 -1.380
0.371 -1.380
0.372 -1.370
0.373 -1.370
0.374 -1.370
0.375 -1.360
0.376 -1.360
0.377 -1.360
0.378 -1.350
0.379 -1.350
0.380 -1.350
0.381 -1.340
0.382 -1.340
0.383 -1.340
0.384 -1.330
0.385 -1.330
0.386 -1.330
0.387 -1.320
0.388 -1.320
0.389 -1.320
0.390 -1.310
0.391 -1.310
0.392 -1.310
0.393 -1.300
0.394 -1.300
0.395 -1.300
0.396 -1.290
0.397 -1.290
0.398 -1.290
0.399 -1.280
0.400 -1.280
0.401 -1.280
0.402 -1.270
0.403 -1.270
0.404 -1.270
0.405 -1.260
0.406 -1.260
0.407 -1.260
0.408 -1.250
0.409 -1.250
0.410 -1.250
0.411 -1.250
0.412 -1.240
0.413 -1.240
0.414 -1.240
0.415 -1.230
0.416 -1.230
0.417 -1.230
0.418 -1.220
0.419 -1.220
0.420 -1.220
0.421 -1.210
0.422 -1.210
0.423 -1.210
0.424 -1.200
0.425 -1.200
0.426 -1.200
0.427 -1.200
0.428 -1.190
0.429 -1.190
0.430 -1.190
0.431 -1.180
0.432 -1.180
0.433 -1.180
0.434 -1.170
0.435 -1.170
0.436 -1.170
0.437 -1.170
0.438 -1.160
0.439 -1.160
0.440 -1.160
0.441 -1.150
0.442 -1.150
0.443 -1.150
0.444 -1.150
0.445 -1.140
0.446 -1.140
0.447 -1.140
0.448 -1.130
0.449 -1.130
0.450 -1.130
0.451 -1.130
0.452 -1.120
0.453 -1.120
0.454 -1.120
0.455 -1.110
0.456 -1.110
0.457 -1.110
0.458 -1.110
0.459 -1.100
0.460 -1.100
0.461 -1.100
0.462 -1.090
0.463 -1.090
0.464 -1.090
0.465 -1.090
0.466 -1.080
0.467 -1.080
0.468 -1.080
0.469 -1.070
0.470 -1.070
0.471 -1.070
0.472 -1.070
0.473 -1.060
0.474 -1.060
0.475 -1.060
0.476 -1.060
0.477 -1.050
0.478 -1.050
0.479 -1.050
0.480 -1.040
0.481 -1.040
0.482 -1.040
0.483 -1.040
0.484 -1.030
0.485 -1.030
0.486 -1.030
0.487 -1.030
0.488 -1.020
0.489 -1.020
0.490 -1.020
0.491 -1.020
0.492 -1.010
0.493 -1.010
0.494 -1.010
0.495 -1.000
0.496 -1.000
0.497 -1.000
0.498 -1.000
0.499 -0.990
0.500 -0.990
0.501 -0.990
0.502 -0.990
0.503 -0.980
0.504 -0.980
0.505 -0.980
0.506 -0.980
0.507 -0.970
0.508 -0.970
0.509 -0.970
0.510 -0.970
0.511 -0.960
0.512 -0.960
0.513 -0.960
0.514 -0.960
0.515 -0.950
0.516 -0.950
0.517 -0.950
0.518 -0.950
0.519 -0.940
0.520 -0.940
0.521 -0.940
0.522 -0.940
0.523 -0.930
0.524 -0.930
0.525 -0.930
0.526 -0.930
0.527 -0.920
0.528 -0.920
0.529 -0.920
0.530 -0.920
0.531 -0.910
0.532 -0.910
0.533 -0.910
0.534 -0.910
0.535 -0.900
0.536 -0.900
0.537 -0.900
0.538 -0.900
0.539 -0.890
0.540 -0.890
0.541 -0.890
0.542 -0.890
0.543 -0.890
0.544 -0.880
0.545 -0.880
0.546 -0.880
0.547 -0.880
0.548 -0.870
0.549 -0.870
0.550 -0.870
0.551 -0.870
0.552 -0.860
0.553 -0.860
0.554 -0.860
0.555 -0.860
0.556 -0.850
0.557 -0.850
0.558 -0.850
0.559 -0.850
0.560 -0.850
0.561 -0.840
0.562 -0.840
0.563 -0.840
0.564 -0.840
0.565 -0.830
0.566 -0.830
0.567 -0.830
0.568 -0.830
0.569 -0.820
0.570 -0.820
0.571 -0.820
0.572 -0.820
0.573 -0.820
0.574 -0.810
0.575 -0.810
0.576 -0.810
0.577 -0.810
0.578 -0.800
0.579 -0.800
0.580 -0.800
0.581 -0.800
0.582 -0.800
0.583 -0.790
0.584 -0.790
0.585 -0.790
0.586 -0.790
0.587 -0.780
0.588 -0.780
0.589 -0.780
0.590 -0.780
0.591 -0.780
0.592 -0.770
0.593 -0.770
0.594 -0.770
0.595 -0.770
0.596 -0.760
0.597 -0.760
0.598 -0.760
0.599 -0.760
0.600 -0.760
0.601 -0.750
0.602 -0.750
0.603 -0.750
0.604 -0.750
0.605 -0.750
0.606 -0.740
0.607 -0.740
0.608 -0.740
0.609 -0.740
0.610 -0.730
0.611 -0.730
0.612 -0.730
0.613 -0.730
0.614 -0.730
0.615 -0.720
0.616 -0.720
0.617 -0.720
0.618 -0.720
0.619 -0.720
0.620 -0.710
0.621 -0.710
0.622 -0.710
0.623 -0.710
0.624 -0.710
0.625 -0.700
0.626 -0.700
0.627 -0.700
0.628 -0.700
0.629 -0.690
0.630 -0.690
0.631 -0.690
0.632 -0.690
0.633 -0.690
0.634 -0.680
0.635 -0.680
0.636 -0.680
0.637 -0.680
0.638 -0.680
0.639 -0.670
0.640 -0.670
0.641 -0.670
0.642 -0.670
0.643 -0.670
0.644 -0.660
0.645 -0.660
0.646 -0.660
0.647 -0.660
0.648 -0.660
0.649 -0.650
0.650 -0.650
0.651 -0.650
0.652 -0.650
0.653 -0.650
0.654 -0.640
0.655 -0.640
0.656 -0.640
0.657 -0.640
0.658 -0.640
0.659 -0.630
0.660 -0.630
0.661 -0.630
0.662 -0.630
0.663 -0.630
0.664 -0.620
0.665 -0.620
0.666 -0.620
0.667 -0.620
0.668 -0.620
0.669 -0.610
0.670 -0.610
0.671 -0.610
0.672 -0.610
0.673 -0.610
0.674 -0.610
0.675 -0.600
0.676 -0.600
0.677 -0.600
0.678 -0.600
0.679 -0.600
0.680 -0.590
0.681 -0.590
0.682 -0.590
0.683 -0.590
0.684 -0.590
0.685 -0.580
0.686 -0.580
0.687 -0.580
0.688 -0.580
0.689 -0.580
0.690 -0.570
0.691 -0.570
0.692 -0.570
0.693 -0.570
0.694 -0.570
0.695 -0.570
0.696 -0.560
0.697 -0.560
0.698 -0.560
0.699 -0.560
0.700 -0.560
0.701 -0.550
0.702 -0.550
0.703 -0.550
0.704 -0.550
0.705 -0.550
0.706 -0.540
0.707 -0.540
0.708 -0.540
0.709 -0.540
0.710 -0.540
0.711 -0.540
0.712 -0.530
0.713 -0.530
0.714 -0.530
0.715 -0.530
0.716 -0.530
0.717 -0.520
0.718 -0.520
0.719 -0.520
0.720 -0.520
0.721 -0.520
0.722 -0.520
0.723 -0.510
0.724 -0.510
0.725 -0.510
0.726 -0.510
0.727 -0.510
0.728 -0.500
0.729 -0.500
0.730 -0.500
0.731 -0.500
0.732 -0.500
0.733 -0.500
0.734 -0.490
0.735 -0.490
0.736 -0.490
0.737 -0.490
0.738 -0.490
0.739 -0.480
0.740 -0.480
0.741 -0.480
0.742 -0.480
0.743 -0.480
0.744 -0.480
0.745 -0.470
0.746 -0.470
0.747 -0.470
0.748 -0.470
0.749 -0.470
0.750 -0.460
0.751 -0.460
0.752 -0.460
0.753 -0.460
0.754 -0.460
0.755 -0.460
0.756 -0.450
0.757 -0.450
0.758 -0.450
0.759 -0.450
0.760 -0.450
0.761 -0.450
0.762 -0.440
0.763 -0.440
0.764 -0.440
0.765 -0.440
0.766 -0.440
0.767 -0.430
0.768 -0.430
0.769 -0.430
0.770 -0.430
0.771 -0.430
0.772 -0.430
0.773 -0.420
0.774 -0.420
0.775 -0.420
0.776 -0.420
0.777 -0.420
0.778 -0.420
0.779 -0.410
0.780 -0.410
0.781 -0.410
0.782 -0.410
0.783 -0.410
0.784 -0.400
0.785 -0.400
0.786 -0.400
0.787 -0.400
0.788 -0.400
0.789 -0.400
0.790 -0.390
0.791 -0.390
0.792 -0.390
0.793 -0.390
0.794 -0.390
0.795 -0.390
0.796 -0.380
0.797 -0.380
0.798 -0.380
0.799 -0.380
0.800 -0.380
0.801 -0.370
0.802 -0.370
0.803 -0.370
0.804 -0.370
0.805 -0.370
0.806 -0.370
0.807 -0.360
0.808 -0.360
0.809 -0.360
0.810 -0.360
0.811 -0.360
0.812 -0.360
0.813 -0.350
0.814 -0.350
0.815 -0.350
0.816 -0.350
0.817 -0.350
0.818 -0.340
0.819 -0.340
0.820 -0.340
0.821 -0.340
0.822 -0.340
0.823 -0.340
0.824 -0.330
0.825 -0.330
0.826 -0.330
0.827 -0.330
0.828 -0.330
0.829 -0.320
0.830 -0.320
0.831 -0.320
0.832 -0.320
0.833 -0.320
0.834 -0.320
0.835 -0.310
0.836 -0.310
0.837 -0.310
0.838 -0.310
0.839 -0.310
0.840 -0.300
0.841 -0.300
0.842 -0.300
0.843 -0.300
0.844 -0.300
0.845 -0.300
0.846 -0.290
0.847 -0.290
0.848 -0.290
0.849 -0.290
0.850 -0.290
0.851 -0.280
0.852 -0.280
0.853 -0.280
0.854 -0.280
0.855 -0.280
0.856 -0.280
0.857 -0.270
0.858 -0.270
0.859 -0.270
0.860 -0.270
0.861 -0.270
0.862 -0.260
0.863 -0.260
0.864 -0.260
0.865 -0.260
0.866 -0.260
0.867 -0.250
0.868 -0.250
0.869 -0.250
0.870 -0.250
0.871 -0.250
0.872 -0.250
0.873 -0.240
0.874 -0.240
0.875 -0.240
0.876 -0.240
0.877 -0.240
0.878 -0.230
0.879 -0.230
0.880 -0.230
0.881 -0.230
0.882 -0.230
0.883 -0.220
0.884 -0.220
0.885 -0.220
0.886 -0.220
0.887 -0.220
0.888 -0.210
0.889 -0.210
0.890 -0.210
0.891 -0.210
0.892 -0.210
0.893 -0.200
0.894 -0.200
0.895 -0.200
0.896 -0.200
0.897 -0.190
0.898 -0.190
0.899 -0.190
0.900 -0.190
0.901 -0.190
0.902 -0.180
0.903 -0.180
0.904 -0.180
0.905 -0.180
0.906 -0.180
0.907 -0.170
0.908 -0.170
0.909 -0.170
0.910 -0.170
0.911 -0.160
0.912 -0.160
0.913 -0.160
0.914 -0.160
0.915 -0.160
0.916 -0.150
0.917 -0.150
0.918 -0.150
0.919 -0.150
0.920 -0.140
0.921 -0.140
0.922 -0.140
0.923 -0.140
0.924 -0.130
0.925 -0.130
0.926 -0.130
0.927 -0.130
0.928 -0.120
0.929 -0.120
0.930 -0.120
0.931 -0.120
0.932 -0.110
0.933 -0.110
0.934 -0.110
0.935 -0.110
0.936 -0.100
0.937 -0.100
0.938 -0.100
0.939 -0.100
0.940 -0.090
0.941 -0.090
0.942 -0.090
0.943 -0.080
0.944 -0.080
0.945 -0.080
0.946 -0.080
0.947 -0.070
0.948 -0.070
0.949 -0.070
0.950 -0.060
0.951 -0.060
0.952 -0.060
0.953 -0.050
0.954 -0.050
0.955 -0.050
0.956 -0.040
0.957 -0.040
0.958 -0.040
0.959 -0.030
0.960 -0.030
0.961 -0.030
0.962 -0.020
0.963 -0.020
0.964 -0.010
0.965 -0.010
0.966 -0.010
0.967 -0.000
0.968 -0.000
0.969 0.010
0.970 0.010
0.971 0.010
0.972 0.020
0.973 0.020
0.974 0.030
0.975 0.030
0.976 0.040
0.977 0.040
0.978 0.050
0.979 0.050
0.980 0.060
0.981 0.070
0.982 0.070
0.983 0.080
0.984 0.090
0.985 0.090
0.986 0.100
0.987 0.110
0.988 0.120
0.989 0.130
0.990 0.140
0.991 0.150
0.992 0.160
0.993 0.170
0.994 0.190
0.995 0.200
0.996 0.220
0.997 0.250
0.998 0.280
0.999 0.330
