3.059023205018257859e-07 6.525640761398041612e-01 
3.215862678579245412e-07 6.842366044541158265e-01 
3.380743483904743061e-07 7.174463749921436984e-01 
3.554077908890640533e-07 7.522679985821847382e-01 
3.736299379885273404e-07 7.887797073265356840e-01 
3.927863545481053003e-07 8.270635303708576691e-01 
4.129249415873286729e-07 8.672054781783742339e-01 
4.340960560635169786e-07 9.092957357766227044e-01 
4.563526367904018199e-07 9.534288653691858073e-01 
4.797503368127355169e-07 9.997040187841420567e-01 
5.043476625678916271e-07 1.048225160233823949e+00 
5.302061201824328858e-07 1.099101299882318861e+00 
5.573903692694645323e-07 1.152446738769296264e+00 
5.859683846113473662e-07 1.208381325581354915e+00 
6.160116261320592563e-07 1.267030725921251211e+00 
6.475952175842278093e-07 1.328526704649323653e+00 
6.807981343976415384e-07 1.393007421886380603e+00 
7.157034011589609116e-07 1.460617743424042381e+00 
7.523982992164306405e-07 1.531509566204531048e+00 
7.909745849287134463e-07 1.605842159549232484e+00 
8.315287191035797356e-07 1.683782523002122611e+00 
8.741621082001717898e-07 1.765505761508286975e+00 
9.189813578979717484e-07 1.851195478846109133e+00 
9.660985396665287929e-07 1.941044190056993468e+00 
1.015631471002508262e-06 2.035253754016709049e+00 
1.067704010034801725e-06 2.134035826939398639e+00 
1.122446365234364056e-06 2.237612337858650324e+00 
1.179995421003214005e-06 2.346215987245094059e+00 
1.240495079956737545e-06 2.460090769830314716e+00 
1.304096622755184042e-06 2.579492522728306536e+00 
1.370959086384113674e-06 2.704689500245621492e+00 
1.441249661829700436e-06 2.835962976537317104e+00 
1.515144112143284134e-06 2.973607877573100300e+00 
1.592827211940548929e-06 3.117933443673235772e+00 
1.674493209434307728e-06 3.269263924292158396e+00 
1.760346312156213177e-06 3.427939306531630148e+00 
1.850601197581954108e-06 3.594316078917229262e+00 
1.945483549936765273e-06 3.768768032284784741e+00 
2.045230624523543909e-06 3.951687099678271142e+00 
2.150091840984688092e-06 4.143484236756473926e+00 
2.260329406981118614e-06 4.344590345117330443e+00 
2.376218973848010330e-06 4.555457240433734789e+00 
2.498050325866710336e-06 4.776558667416595405e+00 
2.626128104876382668e-06 5.008391364284497271e+00 
2.760772572037287162e-06 5.251476178664326255e+00 
2.902320408650496801e-06 5.506359237726630163e+00 
3.051125558036519890e-06 5.773613175307994894e+00 
3.207560110577962700e-06 6.053838418281978662e+00 
3.372015234139298021e-06 6.347664535488813264e+00 
3.544902152190277809e-06 6.655751652289816356e+00 
3.726653172078803499e-06 6.978791933507039857e+00 
3.917722766024474580e-06 7.317511138569450679e+00 
4.118588707535861475e-06 7.672670252009795355e+00 
4.329753266093139866e-06 8.045067193089073143e+00 
4.551744463083409039e-06 8.435538608556791829e+00 
4.785117392129195949e-06 8.844961752130579669e+00 
5.030455607111644826e-06 9.274256455574123592e+00 
5.288372581359179674e-06 9.724387195139216900e+00 
5.559513241650373021e-06 1.019636525836847873e+01 
5.844555580866815540e-06 1.069125101621127349e+01 
6.144212353328471540e-06 1.121015630526128426e+01 
6.459232857050738118e-06 1.175424692560384088e+01 
6.790404807379771878e-06 1.232474526012861915e+01 
7.138556306691162195e-06 1.292293302054370940e+01 
7.504557915077204533e-06 1.355015412721940216e+01 
7.889324827200587103e-06 1.420781772836349788e+01 
8.293819160757753291e-06 1.489740136582903141e+01 
8.719052362274285227e-06 1.562045429481810288e+01 
9.166087736248057605e-06 1.637860096430851442e+01 
9.636043103964330830e-06 1.717354466684913561e+01 
1.013009359863121538e-05 1.800707136506733974e+01 
1.064947460382478790e-05 1.888105370418725926e+01 
1.119548484259151579e-05 1.979745521932176544e+01 
1.176948962493235138e-05 2.075833474661525102e+01 
1.237292426178888029e-05 2.176585104897614897e+01 
1.300729765406831334e-05 2.282226766597097978e+01 
1.367419606568169201e-05 2.392995799912557686e+01 
1.437528709002991615e-05 2.509141064425207190e+01 
1.511232381985586521e-05 2.630923498237426728e+01 
1.588714923088939049e-05 2.758616704224045435e+01 
1.670170079024660794e-05 2.892507564714825463e+01 
1.755801530110687162e-05 3.032896886003111092e+01 
1.845823399578163895e-05 3.180100074189774162e+01 
1.940460788991057802e-05 3.334447843754175267e+01 
2.039950341117315543e-05 3.496286960569769064e+01 
2.144540831659045798e-05 3.665981020986566108e+01 
2.254493791321357228e-05 3.843911268661739200e+01 
2.370084159775344190e-05 4.030477451134013478e+01 
2.491600973150475266e-05 4.226098717862922172e+01 
2.619348086775470484e-05 4.431214561961537868e+01 
2.753644934974891994e-05 4.646285807565105586e+01 
2.894827329821342076e-05 4.871795645125513374e+01 
3.043248300840562692e-05 5.108250716996233365e+01 
3.199278977769132648e-05 5.356182255654819357e+01 
3.363309518572123809e-05 5.616147277274892247e+01 
3.535750085041236633e-05 5.888729833034037853e+01 
3.717031868412924126e-05 6.174542321343788842e+01 
3.907608167571078754e-05 6.474226863694043743e+01 
4.107955522530357004e-05 6.788456747261486157e+01 
4.318574906034433776e-05 7.117937937557211114e+01 
4.539992976248807967e-05 7.463410664486404755e+01 
4.772763393680535859e-05 7.825651085388048500e+01 
5.017468205617894183e-05 8.205473028791118395e+01 
5.274719301551768723e-05 8.603729822804881167e+01 
5.545159943218107865e-05 9.021316212259263523e+01 
5.829466373087315435e-05 9.459170368844954169e+01 
6.128349505322671351e-05 9.918275998941790306e+01 
6.442556703436033705e-05 1.039966455359305399e+02 
6.772873649085907528e-05 1.090441754582147382e+02 
7.120126306690828879e-05 1.143366898046128171e+02 
7.485182988770643921e-05 1.198860790182578597e+02 
7.868956527180084881e-05 1.257048106514119041e+02 
8.272406555663884206e-05 1.318059573746380977e+02 
8.696541909440986997e-05 1.382032263476440903e+02 
9.142423147818073699e-05 1.449109900139718548e+02 
9.611165206140254191e-05 1.519443183909961306e+02 
1.010394018371016720e-04 1.593190129270272735e+02 
1.062198027464676133e-04 1.670516420016826942e+02 
1.116658084901241013e-04 1.751595781492829360e+02 
1.173910369191279803e-04 1.836610370889944477e+02 
1.234098040866900780e-04 1.925751186489005420e+02 
1.297371600457651012e-04 2.019218496771748050e+02 
1.363889264820232711e-04 2.117222290351389233e+02 
1.433817362763056455e-04 2.219982747744947176e+02 
1.507330750954898936e-04 2.327730736042460933e+02 
1.584613251157653230e-04 2.440708327586391420e+02 
1.665858109876483387e-04 2.559169343819730784e+02 
1.751268481576742783e-04 2.683379925541255488e+02 
1.841057936675958640e-04 2.813619130827209460e+02 
1.935450995581117185e-04 2.950179561979085179e+02 
2.034683690106629794e-04 3.093368022899437051e+02 
2.139004153676812446e-04 3.243506208375269466e+02 
2.248673241788693637e-04 3.400931426808001561e+02 
2.363965184286629729e-04 3.565997358040884251e+02 
2.485168271079757005e-04 3.739074847941432154e+02 
2.612585573016925852e-04 3.920552741572638524e+02 
2.746535699721688829e-04 4.110838756788967885e+02 
2.887353596282311993e-04 4.310360400237625527e+02 
3.035391380788964293e-04 4.519565927818806585e+02 
3.191019224812350285e-04 4.738925351756959117e+02 
3.354626279025451924e-04 4.968931496561263543e+02 
3.526621646282911485e-04 5.210101106227629089e+02 
3.707435404591257876e-04 5.462976005183325015e+02 
3.897519682527942697e-04 5.728124315578901360e+02 
4.097349789798286580e-04 6.006053612086039948e+02 
4.307425405757319271e-04 6.297521957861407600e+02 
4.528271828868440083e-04 6.603265818160011804e+02 
4.760441290223192071e-04 6.923889521784886938e+02 
5.004514334406633081e-04 7.260078268148225789e+02 
5.261101271161193775e-04 7.612552315660567501e+02 
5.530843701478924991e-04 7.982011764490148380e+02 
5.814416121938181326e-04 8.369190455218476927e+02 
6.112527611296385451e-04 8.774879958032016702e+02 
6.425923603556274889e-04 9.199902548233779953e+02 
6.755387751939181127e-04 9.645070727904478645e+02 
7.101743888426273075e-04 1.011126292819368132e+03 
7.465858083767621441e-04 1.059933804358250882e+03 
7.848640813110194670e-04 1.111023611073957227e+03 
8.251049232659968648e-04 1.164492474678731242e+03 
8.674089573071004124e-04 1.220428100072321513e+03 
9.118819655546198935e-04 1.278939207877972649e+03 
9.586351536941296880e-04 1.340117924549979307e+03 
1.007785429048626679e-03 1.404078676244883809e+03 
1.059455692907732439e-03 1.470925377824940597e+03 
1.113775147844932919e-03 1.540756157553861840e+03 
1.170879620791311689e-03 1.613685157697970908e+03 
1.230911902673626282e-03 1.689820832221822911e+03 
1.294022105466001958e-03 1.769273596664965908e+03 
1.360368037548055848e-03 1.852153243204665387e+03 
1.430115598308045934e-03 1.938561892328564682e+03 
1.503439192977754080e-03 2.028629666538307674e+03 
1.580522168736409397e-03 2.122448017894781060e+03 
1.661557273174137529e-03 2.220114758560855989e+03 
1.746747136261333697e-03 2.321747742047109114e+03 
1.836304777029133936e-03 2.427441756476382579e+03 
1.930454136227949345e-03 2.537271968626403122e+03 
2.029430636295988157e-03 2.651361422961238532e+03 
2.133481770037976965e-03 2.769748242686986487e+03 
2.242867719486086112e-03 2.892531351148846170e+03 
2.357862006490532136e-03 3.019772123792724415e+03 
2.478752176666675511e-03 3.151527701203181550e+03 
2.605840518408833982e-03 3.287803128687370645e+03 
2.739444818768723561e-03 3.428661698829754187e+03 
2.879899158088616417e-03 3.574101008369042120e+03 
3.027554745376210416e-03 3.724102360372914063e+03 
3.182780796510085389e-03 3.878642189677323131e+03 
3.345965457471714814e-03 4.037660165168645563e+03 
3.517516774912597243e-03 4.201114944881043812e+03 
3.697863716483424691e-03 4.368875790816734479e+03 
3.887457243476651579e-03 4.540825071553375892e+03 
4.086771438464619106e-03 4.716798805205085955e+03 
4.296304690752923532e-03 4.896587291603860649e+03 
4.516580942613284376e-03 5.080011585620617552e+03 
4.748150999412126434e-03 5.266735137958784435e+03 
4.991593906910903912e-03 5.456494817483971929e+03 
5.247518399182111472e-03 5.648899485044044013e+03 
5.516564420761540903e-03 5.843594817179839083e+03 
5.799404726842954938e-03 6.040125180383951374e+03 
6.096746565516493986e-03 6.237898437105886842e+03 
6.409333446257287764e-03 6.436410335566137292e+03 
6.737946999086424568e-03 6.635021754227813290e+03 
7.083408929053131541e-03 6.833114763227230469e+03 
7.446583070925409317e-03 7.029804427463982393e+03 
7.828377549226901017e-03 7.224378868541842166e+03 
8.229747049021221908e-03 7.415976730760108694e+03 
8.651695203121895217e-03 7.603489659118456984e+03 
9.095277101697147801e-03 7.786041996067569016e+03 
9.561601930544914862e-03 7.962415374676349529e+03 
1.005183574463506743e-02 8.131442084426005749e+03 
1.056720438385422289e-02 8.291945624524436425e+03 
1.110899653824396448e-02 8.442501778708037818e+03 
1.167856697039719623e-02 8.581771688156382879e+03 
1.227733990307029038e-02 8.708304956467964075e+03 
1.290681258048182248e-02 8.820576188130797163e+03 
1.356855901220299469e-02 8.917037134180547582e+03 
1.426423390900143431e-02 8.996186569791620059e+03 
1.499557682048000690e-02 9.056463036874549289e+03 
1.576441648485692182e-02 9.096157409262668807e+03 
1.657267540176381518e-02 9.114035180448776373e+03 
1.742237463949622076e-02 9.108561934866236697e+03 
1.831563888873704443e-02 9.078516718381519240e+03 
1.925470177538994923e-02 9.022829763366360567e+03 
2.024191144580758314e-02 8.940773060857844030e+03 
2.127973643838054069e-02 8.831698959560690128e+03 
2.237077185616915750e-02 8.695479229085633051e+03 
2.351774585601286785e-02 8.532574390387546373e+03 
2.472352647034336062e-02 8.343658323114648738e+03 
2.599112877875953478e-02 8.130071919513776265e+03 
2.732372244729698585e-02 7.893861456425654978e+03 
2.872463965424410307e-02 7.637586363970475759e+03 
3.019738342232343442e-02 7.364532798169361740e+03 
3.174563637807315680e-02 7.078618895193653771e+03 
3.337326996033158216e-02 6.784237590462020307e+03 
3.508435410085083278e-02 6.486325767575618556e+03 
3.688316740124613496e-02 6.189974748882103995e+03 
3.877420783172848273e-02 5.897443025153978851e+03 
4.076220397837305304e-02 5.614848468958200101e+03 
4.285212686704739649e-02 5.348970383356661841e+03 
4.504920239356542677e-02 5.104009748787352692e+03 
4.735892439114896407e-02 4.882161556256681251e+03 
4.978706836787243073e-02 4.683282976206834064e+03 
5.233970594844135349e-02 4.505190516502732862e+03 
5.502322005641668845e-02 4.344141519130114830e+03 
5.784432087484844831e-02 4.196576679884503392e+03 
6.081006262522850592e-02 4.064908317208179142e+03 
6.392786120671870020e-02 3.928146131463900019e+03 
6.720551273976151097e-02 3.782499420557689064e+03 
7.065121306044198912e-02 3.619769594600178607e+03 
7.427357821434696361e-02 3.433931963763729982e+03 
7.808166600116696332e-02 3.223480161438697905e+03 
8.208499862391337165e-02 2.992726436308310895e+03 
8.629358649938589920e-02 2.751117051172848278e+03 
9.071795328942874881e-02 2.511252165772302305e+03 
9.536916221556676621e-02 2.286836245064315790e+03 
1.002588437228218304e-01 2.090712233753442888e+03 
1.053992245618834284e-01 1.931696373556248773e+03 
1.108031583623540345e-01 1.810706437169028732e+03 
1.164841577735182265e-01 1.719964169969583963e+03 
1.224564282530043596e-01 1.645215765272177123e+03 
1.287349035878279091e-01 1.568227492823407601e+03 
1.353352832366376823e-01 1.471440923486089105e+03 
1.422740715865399574e-01 1.349344477338661818e+03 
1.495686192226629019e-01 1.213898303063516551e+03 
1.572371663136570008e-01 1.084157071836635851e+03 
1.652988882216175348e-01 9.770373048201017809e+02 
1.737739434504778357e-01 9.016555558003734632e+02 
1.826835240527691917e-01 8.495770770756665797e+02 
1.920499086207905493e-01 8.011841675069305211e+02 
2.018965179946938526e-01 7.407730703129271888e+02 
2.122479738267836202e-01 6.665974751039245803e+02 
2.231301601484726449e-01 5.932965269420608365e+02 
2.345702880938428103e-01 5.362325221327398594e+02 
2.465969639416541459e-01 4.967478537370127469e+02 
2.592402606459418002e-01 4.614858205740820267e+02 
2.725317930340656614e-01 4.196578590435569254e+02 
2.865047968602461026e-01 3.749316970140147873e+02 
3.011942119122611450e-01 3.381717896022780110e+02 
3.166367693791155569e-01 3.102387350775896948e+02 
3.328710836981453314e-01 2.832024127714839210e+02 
3.499377491112247163e-01 2.543226393966199055e+02 
3.678794411715154977e-01 2.290025873803304535e+02 
3.867410234545784475e-01 2.083028881645410877e+02 
4.065696597406806001e-01 1.882471552909987906e+02 
4.274149319488126375e-01 1.690806768943750740e+02 
4.493289641173122684e-01 1.527343784795728823e+02 
4.723665527411103904e-01 1.377259520622241382e+02 
4.965853037915104462e-01 1.237184350736041978e+02 
5.220457767611225153e-01 1.113957069534238116e+02 
5.488116360941387439e-01 1.000869228268203557e+02 
5.769498103806052214e-01 8.985917908729183523e+01 
6.065306597127584354e-01 8.066724306578882420e+01 
6.376281516219051149e-01 7.231932898136220444e+01 
6.703200460357783275e-01 6.481987134492874247e+01 
7.046880897188601001e-01 5.804524204835614398e+01 
7.408182206818726412e-01 5.195282989045362854e+01 
7.788007830715680813e-01 4.646812986467530493e+01 
8.187307530781540166e-01 4.153679611309662789e+01 
8.607079764252394405e-01 3.710604487661725415e+01 
9.048374180361511421e-01 3.312876751674343723e+01 
9.512294245009160765e-01 2.956116044370824270e+01 
1.000000000000213163e+00 2.636290579013177293e+01 
1.051271096376248826e+00 2.349788573925052049e+01 
1.105170918075884856e+00 2.093244644945479749e+01 
1.161834242728533306e+00 1.863788275060310795e+01 
1.221402758160433644e+00 1.658613694491953083e+01 
1.284025416688019838e+00 1.475324848906893749e+01 
1.349858807576296504e+00 1.311589498251529307e+01 
1.419067548593566874e+00 1.165493386468585690e+01 
1.491824697641596753e+00 1.035195242677848348e+01 
1.568312185490513100e+00 9.190382684287646597e+00 
1.648721270700491237e+00 8.155376610621056344e+00 
1.733253017867778301e+00 7.233914505612986545e+00 
1.822118800390913007e+00 6.413712337110085038e+00 
1.915540829014322100e+00 5.684026824382065968e+00 
2.013752707470925607e+00 5.035353070438734591e+00 
2.117000016613148627e+00 4.458865799053359780e+00 
2.225540928492967474e+00 3.946830069149703135e+00 
2.339646851926517890e+00 3.492163351538406513e+00 
2.459603111157505406e+00 3.088721004514013213e+00 
2.585709659316432152e+00 2.730820908129102609e+00 
2.718281828459663263e+00 2.413503060884659046e+00 
2.857651118063815776e+00 2.132257846290649628e+00 
3.004166023947120401e+00 1.883114440170302606e+00 
3.158192909690492378e+00 1.662463525728416380e+00 
3.320116922737311960e+00 1.467141097613399836e+00 
3.490342957462647444e+00 1.294324468887016133e+00 
3.669296667620093988e+00 1.141436895760383097e+00 
3.857425530697870641e+00 1.006274803203852208e+00 
4.055199966845619564e+00 8.867996331441455604e-01 
4.263114515169814212e+00 7.812344326246055681e-01 
4.481689070339116121e+00 6.879992308816177404e-01 
4.711470182591849465e+00 6.056773518383811172e-01 
4.953032424396282885e+00 5.330154182720510114e-01 
5.206979827181080545e+00 4.689019274705449880e-01 
5.473947391728498424e+00 4.123535645468429656e-01 
5.754602676007100293e+00 3.624901982061578543e-01 
6.049647464414390718e+00 3.185353609586899504e-01 
6.359819522603354258e+00 2.798039860366169918e-01 
6.685894442280875261e+00 2.456829886154501819e-01 
7.028687580590986528e+00 2.156367391760446173e-01 
7.389056098932435646e+00 1.891824758809405871e-01 
7.767901106308653603e+00 1.659013474036718505e-01 
8.166169912569634093e+00 1.454181430257672769e-01 
8.584858397179985445e+00 1.274016246785479867e-01 
9.025013499436326470e+00 1.115596281273556895e-01 
9.487735836360851494e+00 9.763515279031811933e-02 
9.974182454817173138e+00 8.539997452487707585e-02 
1.048556972473016025e+01 7.465063656816244009e-02 
1.102317638064432792e+01 6.521145222869481617e-02 
1.158834671922626214e+01 5.692597778505556483e-02 
1.218249396070650370e+01 4.965510147037777156e-02 
1.280710378266622662e+01 4.327674652079772921e-02 
1.346373803500505772e+01 3.768413528920677713e-02 
1.415403864537935341e+01 3.278182944456228126e-02 
1.487973172487657614e+01 2.848693360618842138e-02 
1.564263188419211659e+01 2.472543637019363957e-02 
1.644464677110120832e+01 2.143363004326682975e-02 
1.728778184057202338e+01 1.855390205568431192e-02 
1.817414536944768244e+01 1.603618172701463604e-02 
1.910595372823652127e+01 1.383674757622858041e-02 
2.008553692319280515e+01 1.191663554726323827e-02 
2.111534442254602695e+01 1.024172829897337413e-02 
2.219795128144734164e+01 8.782311959064688020e-03 
2.333606458094873304e+01 7.511920052742959361e-03 
2.453253019711569394e+01 6.407482344476745674e-03 
2.579033991719975205e+01 5.448677636369999092e-03 
2.711263892066493852e+01 4.617673528230471607e-03 
2.850273364377471097e+01 3.898781739800547246e-03 
2.996410004740484823e+01 3.278171170723115195e-03 
3.150039230875619012e+01 2.743815750009815681e-03 
3.311545195870102276e+01 2.284994517654396172e-03 
3.481331748761120082e+01 1.892340035964572851e-03 
3.659823444368765877e+01 1.557572588531429226e-03 
3.847466604904231957e+01 1.273404130760000599e-03 
4.044730436007814234e+01 1.033369387171935482e-03 
4.252108200007410943e+01 8.317865663434625186e-04 
4.470118449331276622e+01 6.635529503218035420e-04 
4.699306323159186860e+01 5.242004538980552658e-04 
4.940244910554343960e+01 4.097088151388681896e-04 
5.193536683484541783e+01 3.165123613709350963e-04 
5.459815003315897997e+01 2.414401554920670768e-04 
5.739745704546173499e+01 1.816608875307899559e-04 
6.034028759737834946e+01 1.346683879325292316e-04 
6.343400029814058882e+01 9.824691183064828033e-05 
6.668633104094334385e+01 7.045405020746000214e-05 
7.010541234670704114e+01 4.960280286583267171e-05 
7.369979369961600923e+01 3.424461080365558509e-05 
7.747846292528217305e+01 2.315501043359187471e-05 
8.145086866499057976e+01 1.531625972529951563e-05 
8.562694400222423496e+01 9.899833691620377085e-06 
9.001713130054676526e+01 6.246038223165143741e-06 
9.463240831495036787e+01 3.842910519117931360e-06 
9.948431564196151555e+01 2.303652110350785343e-06 
1.045849855771433994e+02 1.344421604866863272e-06 
1.099471724521542768e+02 7.634306834539968387e-07 
1.155842845272200918e+02 4.215974169498729248e-07 
1.215104175187690743e+02 2.263657928123517557e-07 
1.277403898460648861e+02 1.181529120255471731e-07 
1.342897796849734675e+02 5.995395893312369706e-08 
1.411749639215168770e+02 2.958159811555085562e-08 
1.484131591026187778e+02 1.419810448058048362e-08 
1.560224644864394463e+02 6.632463001657460456e-09 
1.640219072999485945e+02 3.017579559133686238e-09 
1.724314903169036768e+02 1.338209922374697533e-09 
1.812722418752032070e+02 5.789940535799590386e-10 
1.905662684586848457e+02 2.446515713406742694e-10 
2.003368099748494728e+02 1.010650528770166480e-10 
2.106082978667353416e+02 4.086317285345416677e-11 
2.214064162042512862e+02 1.618977016379146853e-11 
2.327581659077297047e+02 6.292616683728171523e-12 
2.446919322642916654e+02 2.402173680990004327e-12 
2.572375559058498879e+02 9.017137789519491411e-13 
2.704264074262317763e+02 3.331982748670578258e-13 
2.842914658240042627e+02 1.213336711967968657e-13 
2.988674009671481713e+02 4.358669699566079978e-14 
3.141906602857868620e+02 1.546156195825160732e-14 
3.302995599097462787e+02 5.421080423098221276e-15 
3.472343804788374655e+02 1.880342628269430100e-15 
3.650374678654371792e+02 6.457636476564160299e-16 
3.837533390612260860e+02 2.197511596342020767e-16 
4.034287934928555046e+02 7.415349790879697129e-17 
4.241130300448911044e+02 2.482998555866286290e-17 
4.458577700826506316e+02 8.255519886858709317e-18 
4.687173867825576963e+02 2.727120749085607939e-18 
4.927490410934046849e+02 8.955839287344417801e-19 
5.180128246684984106e+02 2.925412798849045682e-19 
5.445719101260938260e+02 9.509915593748152062e-20 
5.724927090138447738e+02 3.078120037723106429e-20 
6.018450378722650385e+02 9.924773318053756374e-21 
6.327022928124463306e+02 3.189171480424230144e-21 
6.651416330445650829e+02 1.021724706139191953e-21 
6.992441738160994191e+02 3.264817922826320300e-22 
7.350951892421985576e+02 1.040893832441650865e-22 
7.727843255353874383e+02 3.312126672883608524e-23 
8.124058251677936369e+02 1.052150216144614724e-23 
8.540587625264155349e+02 3.337449030252735953e-24 
8.978472916506958654e+02 1.057300755139515897e-24 
9.438809066718714575e+02 3.345691269518619532e-25 
9.922747156053346771e+02 1.057630463631514411e-25 
1.043149728180628472e+03 3.340307285618621526e-26 
1.096633158428801380e+03 1.054098412397690559e-26 
1.152858742783748994e+03 3.324130259122074543e-27 
1.211967074492957408e+03 1.047619331713876880e-27 
1.274105955173854682e+03 3.300201625062576828e-28 
1.339430764394840480e+03 1.039258095019434678e-28 
1.408104848205140797e+03 3.271824192253611563e-29 
1.480299927585014302e+03 1.029881513117121348e-29 
1.556196527837648091e+03 3.241232453404928626e-30 
1.635984429996447261e+03 1.019967583454639635e-30 
1.719863145376471039e+03 3.209347464039342844e-31 
1.808042414456641382e+03 1.009823894737668697e-31 
1.900742731340188357e+03 3.177426584997387225e-32 
1.998195895104759757e+03 9.998527549401154763e-33 
2.100645589420852957e+03 3.145787455996131567e-33 
2.208347991887921125e+03 9.895541506152391972e-34 
2.321572414611807289e+03 3.112256588736948820e-34 
2.440601977625289692e+03 9.786890385512587805e-35 
2.565734316835632853e+03 3.077191903856909134e-35 
2.697282328269386653e+03 9.674115172372951565e-36 
2.835574950475434889e+03 3.041027624801182248e-36 
2.980957987042702825e+03 9.558438433264052708e-37 
3.133794971289250043e+03 3.004107698631564862e-37 
3.294468075284922634e+03 9.440827067820939582e-38 
3.463379065480592999e+03 2.966703736842612859e-38 
3.640950307333554974e+03 9.322043494886992233e-39 
3.827625821441170956e+03 2.929029592302871505e-39 
4.023872393823642142e+03 9.202687098473750387e-40 
4.230180743132199495e+03 2.891253126730241907e-40 
4.447066747701334862e+03 9.083227596711049230e-41 
4.675072735513344924e+03 2.853505662683734765e-41 
4.914768840300775992e+03 8.964031789203761462e-42 
5.166754427177720572e+03 2.815889546029525628e-42 
5.431659591364801599e+03 8.845384922553945161e-43 
5.710146733755425885e+03 2.778484178038865036e-43 
6.002912217263044113e+03 8.727507710417620291e-44 
6.310688108091153481e+03 2.741350815158881880e-44 
6.634244006280128815e+03 8.610569862697815460e-45 
6.974388970108182548e+03 2.704536380879352918e-45 
7.331973539158482708e+03 8.494700821448561768e-46 
7.707891861111141225e+03 2.668076488411752986e-46 
8.103083927578147268e+03 8.379998268595945750e-47 
8.518537924572025076e+03 2.631997834642999893e-47 
8.955292703485578386e+03 8.266534860542281108e-48 
9.414440378761499232e+03 2.596320094284733906e-48 
9.897129058747319505e+03 8.154363554523947852e-49 
1.040456571656430970e+04 2.561057417375655592e-49 
1.093801920816896018e+04 8.043521818159906730e-50 
1.149882344515380282e+04 2.526219612436933624e-50 
1.208838073022117533e+04 7.934034954430154422e-51 
1.270816526367042752e+04 2.491813080759372623e-51 
1.335972682966652428e+04 7.825918726643744559e-52 
1.404469467150771925e+04 2.457841553842153647e-52 
1.476478156558243427e+04 7.719181429942264919e-53 
1.552178810420236550e+04 2.424306675226270875e-53 
1.631760719802116000e+04 7.613825525377337485e-54 
1.715422880929701932e+04 2.391208459397611595e-54 
1.803374492783486858e+04 7.509848928550134431e-55 
1.895835480205053682e+04 2.358545653608287029e-55 
1.993037043823734348e+04 7.407246025464610653e-56 
2.095222238178608313e+04 2.326316023070102723e-56 
2.202646579481454319e+04 7.306008473097425648e-57 
2.315578684540369068e+04 2.294516575664134422e-57 
2.434300942441707230e+04 7.206125830075769974e-58 
2.559110220669883711e+04 2.263143738932407255e-58 
2.690318607430719567e+04 7.107586053347828741e-59 
2.828254192034512744e+04 2.232193499432156655e-59 
2.973261885290210193e+04 7.010375889108332103e-60 
3.125704281962085952e+04 2.201661512394982513e-60 
3.285962567445517197e+04 6.914481180374187678e-61 
3.454437470929026313e+04 2.171543187975445477e-61 
3.631550267425979837e+04 6.819887108794797183e-62 
3.817743831181556016e+04 2.141833759034395787e-62 
4.013483743089039490e+04 6.726578384620414436e-63 
4.219259454884566367e+04 2.112528334371204327e-63 
4.435585513031406299e+04 6.634539395816655345e-64 
4.663002845354139572e+04 2.083621940475273244e-64 
4.902080113639969204e+04 6.543754324941060878e-65 
5.153415135589398415e+04 2.055109554234865963e-65 
5.417636379671867326e+04 6.454207240636889084e-66 
5.695404536624281900e+04 2.026986128516563054e-66 
5.987414171521994285e+04 6.365882169102027693e-67 
6.294395460553275188e+04 1.999246612121929052e-67 
6.617116016840114025e+04 6.278763149797053438e-68 
6.956382809870861820e+04 1.971885965326053315e-68 
7.313044183344273188e+04 6.192834278723810064e-69 
7.687991976470644295e+04 1.944899171919688215e-69 
8.082163754034375597e+04 6.108079741911192005e-70 
8.496545150794286747e+04 1.918281248509046636e-70 
8.932172336083906703e+04 6.024483841196893917e-71 
9.390134604774527543e+04 1.892027251650156370e-71 
9.871577101079767453e+04 5.942031013937416476e-72 
1.037770368201258680e+05 1.866132283281638519e-72 
1.090977992765488161e+05 5.860705847948985697e-73 
1.146913630576689611e+05 1.840591494823032342e-73 
1.205717149864963576e+05 5.780493092671067822e-74 
1.267535590057915979e+05 1.815400090204545081e-74 
1.332523529455816897e+05 5.701377667408029370e-75 
1.400843471757866791e+05 1.790553328087332869e-75 
1.472666252406089625e+05 5.623344667220352985e-76 
1.548171465762921434e+05 1.766046523420401234e-76 
1.627547914190663723e+05 5.546379367008087648e-77 
1.710994080155731353e+05 1.741875048492702100e-77 
1.798718622538203781e+05 5.470467224165406106e-78 
1.890940898387710622e+05 1.718034333580608969e-78 
1.987891511430313694e+05 5.395593880101881197e-79 
2.089812888697938761e+05 1.694519867294591837e-79 
2.196959886722229712e+05 5.321745160929472414e-80 
2.309600428808625729e+05 1.671327196662406864e-80 
2.428016174984180834e+05 5.248907077403816054e-81 
2.552503226294341730e+05 1.648451927041459313e-81 
2.683372865209793090e+05 5.177065824410275686e-82 
2.820952333994774381e+05 1.625889721871519289e-82 
2.965585652983192704e+05 5.106207779966340987e-83 
3.117634480808650260e+05 1.603636302318403280e-83 
3.277479018739408348e+05 5.036319503970734438e-84 
3.445518961379595567e+05 1.581687446825608351e-84 
3.622174496113909991e+05 4.967387736658725490e-85 
3.807887353794944938e+05 1.560038990606687813e-85 
4.003121913300411543e+05 4.899399396924747132e-86 
4.208366362722213962e+05 1.538686825079599095e-86 
4.424133920090965694e+05 4.832341580444544837e-87 
4.650964116688389913e+05 1.517626897266858076e-87 
4.889424146156553179e+05 4.766201557765853344e-88 
5.140110282777408138e+05 1.496855209167932033e-88 
5.403649372469085502e+05 4.700966772255435577e-89 
5.680700400227193022e+05 1.476367817111718763e-89 
5.971956137930564582e+05 4.636624838055044493e-90 
6.278144876631795196e+05 1.456160831095517642e-90 
6.600032247664229944e+05 4.573163537954598814e-91 
6.938423137119094608e+05 1.436230414116002391e-91 
7.294163698479967425e+05 4.510570821292992346e-92 
7.668143468447235646e+05 1.416572781495665345e-92 
8.061297591243179049e+05 4.448834801793569441e-93 
8.474609156959623797e+05 1.397184200204794899e-93 
8.909111659795242595e+05 4.387943755450325733e-94 
9.365891582329371013e+05 1.378060988190379602e-94 
9.846091112294379855e+05 4.327886118387225649e-95 
1.035091099863994634e+06 1.359199513700928690e-95 
1.088161355403086869e+06 4.268650484738770807e-96 
1.143952581128624268e+06 1.340596194618626250e-96 
1.202604284165272489e+06 4.210225604543262923e-97 
1.264263124320930336e+06 1.322247497795658491e-97 
1.329083280812643003e+06 4.152600381655157097e-98 
1.397226837794951163e+06 1.304149938396794398e-98 
1.468864189654704416e+06 4.095763871666433111e-99 
1.544174467085782439e+06 1.286300079245690938e-99 
1.623345985009134281e+06 4.039705279868878894e-100
1.706576713458170416e+06 1.268694530183529957e-100
1.794074772606963990e+06 3.984413959218279915e-101
1.886058953179090517e+06 1.251329947430097541e-101
1.982759263538399944e+06 3.929879408333885944e-102
2.084417504829733167e+06 1.234203032951900437e-102
2.191287875607731752e+06 3.876091269516294075e-103
2.303637607465630397e+06 1.217310533843099060e-103
2.421747633253435604e+06 3.823039326792646302e-104
2.545913289556382690e+06 1.200649241708762961e-104
2.676445055190230254e+06 3.770713503984755966e-105
2.813669327560023405e+06 1.184215992058413976e-105
2.957929238823618274e+06 3.719103862803734801e-106
3.109585513900805730e+06 1.168007663707035559e-106
